3M INDIA LIMITED ,3MINDIA.NS
AARTI INDUSTRIES LTD ,AARTIIND.NS
ABB LTD. ,ABB.NS
ABG Shipyard Limited ,ABIRLANUV.NS
ABHISHEK INDUSTRIES LTD. ,ABSHEKIND.NS
Adani Enterprises Limited ,ADANIENT.NS
ADLABS FILMS LTD ,ADLABSFIL.NS
ADOR WELDING LTD ,ADORWELD.NS
AFTEK INFOSYS LIMITED ,AFTEK.NS
AGRO DUTCH INDUSTRIES LTD ,AGRODUTCH.NS
AGRO TECH FOODS LIMITED ,ATFL.NS
AJANTA PHARMA LIMITED ,AJANTPHAR.NS
AKSH OPTIFIBRE LIMITED ,AKSHOPTFB.NS
ALEMBIC LIMITED ,ALEMBICLT.NS
ALFA LAVAL INDIA LTD ,ALFALAVAL.NS
ALLAHABAD BANK ,ALBK.NS
ALOK INDUSTRIES LTD ,ALOKTEXT.NS
ALSTOM PROJECTS INDIA LTD ,APIL.NS
AMARA RAJA BATTERIES LTD. ,AMARAJABA.NS
AMTEK AUTO LTD. ,AMTEKAUTO.NS
ANDHRA BANK ,ANDHRABAN.NS
ANDHRA SUGARS LTD ,ANDHRSUGA.NS
APOLLO HOSPITALS ENTER. L ,APOLLOHOS.NS
APOLLO TYRES LTD ,APOLLOTYR.NS
APTECH LIMITED ,APTECHT.NS
ARCHIES LTD ,ARCHIES.NS
ARVIND MILLS LTD ,ARVINDMIL.NS
ASAHI INDIA GLASS LIMITED ,ASAHIINDI.NS
ASHOK LEYLAND LTD ,ASHOKLEY.NS
ASIAN ELECTRONICS LTD ,ASIANELEC.NS
ASIAN HOTELS LTD ,ASIANHOTE.NS
ASIAN PAINTS INDIA LTD ,ASIANPAIN.NS
ASSOCIATED CEMENT CO LTD ,ACC.NS
ASTRAZENECA PHARMA IND LT ,ASTRAIDL.NS
ATLAS CYCLE (HARYANA) LTD ,ATLASCYCL.NS
ATUL LTD ,ATUL.NS
AUROBINDO PHARMA LTD ,AUROPHARM.NS
AUTOMATIVE AXLES LTD ,AUTOAXLES.NS
AVAYA GLOBAL CONNECT LTD. ,AVAYAGCL.NS
AVENTIS PHARMA LIMITED ,AVENTIS.NS
Aztecsoft Limited ,AZTECSOFT.NS
B. L. Kashyap and Sons Limited ,BLKASHYAP.NS
BAJAJ AUTO FINANCE LTD ,BAJAUTOFI.NS
BAJAJ AUTO LTD ,BAJAJAUTO.NS
BAJAJ HINDUSTAN LTD ,BAJAJHIND.NS
BALAJI TELEFILMS LIMITED. ,BALAJITEL.NS
BALLARPUR INDUSTRIES LTD ,BILT.NS
BALMER LAWRIE & CO LTD ,BALMLAWRI.NS
BALRAMPUR CHINI MILLS LTD ,BALRAMCHI.NS
BANK OF BARODA ,BANKBAROD.NS
BANK OF INDIA ,BANKINDIA.NS
BANNARI AMMAN SUGARS LTD ,BANARISUG.NS
BASF INDIA LTD ,BASF.NS
BATA INDIA LTD ,BATAINDIA.NS
BERGER PAINTS (I) LTD ,BERGEPAIN.NS
BHANSALI ENG. POLYMERS LT ,BEPL.NS
BHARAT EARTH MOVERS LTD ,BEML.NS
BHARAT ELECTRONICS LTD ,BEL.NS
BHARAT FORGE CO LTD ,BHARATFOR.NS
BHARAT PETROLEUM CORP LT ,BPCL.NS
Bharat Rasayan Ltd ,BHARTIART.NS
BHEL ,BHEL.NS
BHUSHAN STEEL & STRIPS LT ,BHUSANSTL.NS
BIOCON LIMITED. ,BIOCON.NS
BIRLA CORPORATION LTD ,BIRLAJUTE.NS
BIRLA ERICSON LTD ,BIRLAERIC.NS
BLUE DART EXPRESS LTD ,BLUEDART.NS
BLUE STAR INFOTECH ,BLUESTINF.NS
BLUE STAR LIMITED ,BLUESTARC.NS
BOC LTD ,BOC.NS
BOMBAY DYEING & MFG. CO L ,BOMDYEING.NS
BONGAIGAON REFINERY LTD ,BONGAIREF.NS
BPL LTD ,BPL.NS
BRITANNIA INDUSTRIES LTD ,BRITANNIA.NS
CADILA HEALTHCARE LIMITED ,CADILAHC.NS
CAN FIN HOMES LTD ,CANFINHOM.NS
CANARA BANK ,CANBK.NS
CARBORUNDUM UNIVERSAL LTD ,CARBORUNI.NS
CAROL INFO SERVICES LTD ,CAROLINFO.NS
CEAT LTD ,CEAT.NS
CENTURY ENKA LTD ,CENTENKA.NS
CENTURY TEXTILES LTD ,CENTURYTE.NS
CESC LTD ,CESC.NS
CHAMBAL FERTILIZERS LTD ,CHAMBLFER.NS
CHENNAI PETROLEUM CORP LT,CHENNPETR.NS
CINEVISTAAS LTD ,CINEVISTA.NS
CIPLA LTD ,CIPLA.NS
CITY UNION BANK LTD ,CUB.NS
City Union Bank Ltd. ,CUMMINSIN.NS
CMC LTD ,CMC.NS
COLGATE PALMOLIVE (I) LTD ,COLPAL.NS
CONSO. FIN. & HOLD. LTD. ,CONSOFINV.NS
CONTAINER CORP OF IND LTD ,CONCOR.NS
COROMANDAL FERTILIZERS LT ,COROMNFER.NS
CORPORATION BANK ,CORPBANK.NS
COSMO FILMS LTD ,COSMOFILM.NS
CREST ANIMATION STUDIOS L ,CRESTANI.NS
CRISIL LTD ,CRISIL.NS
CROMPTON GREAVES LTD ,CROMPGREA.NS
DABUR INDIA LTD ,DABUR.NS
DABUR PHARMA LIMITED ,DABURPHAR.NS
DALMIA CEMENT (BHARAT) LT ,DALMIACEM.NS
DCM SHRIRAM CONSOLIDATED ,DCMSRMCON.NS
DCW LTD ,DCW.NS
DECCAN CHRONICLE HOLD LTD ,DCHL.NS
DEEPAK FERTILIZERS & PETR ,DEEPAKFER.NS
DENA BANK ,DENABANK.NS
DHAMPUR SUGAR MILLS LTD ,DHAMPURSU.NS
DIC INDIA LIMITED ,DICIND.NS
DISHMAN PHARMA & CHEM LTD ,DISHMAN.NS
D-LINK INDIA LIMITED ,D-LINK.NS
DR. REDDY'S LABORATORIES ,DRREDDY.NS
DREDGING CORP OF INDIA ,DREDGECOR.NS
DWARIKESH SUGAR IND LTD ,DWARKESH.NS
E MERCK (INDIA) LTD ,EMERCK.NS
EICHER LTD ,EICHER.NS
EICHER MOTORS LTD ,EICHERMOT.NS
EID PARRY INDIA LTD ,EIDPARRY.NS
EIH LIMITED ,EIHOTEL.NS
ELDER PHARMACEUTICALS LTD ,ELDERPHAR.NS
ELECTROSTEEL CASTINGS LTD ,ELECTCAST.NS
ELGI EQUIPMENTS LTD ,ELGIEQUIP.NS
ELGITREAD (INDIA) LIMITED ,ELGITYRE.NS
ENGINEERS INDIA LTD ,ENGINERSI.NS
ESAB INDIA LTD ,ESABINDIA.NS
ESCORTS INDIA LTD ,ESCORTS.NS
ESSAR OIL LTD ,ESSAROIL.NS
Essar Steel Limited ,ESTL.NS
ESSEL PROPACK LTD ,ESSELPACK.NS
EVEREST INDUSTRIES LIMITED ,EVERESTIN.NS
Exide Industries Ltd. ,EXIDEIND.NS
FAG BEARINGS INDIA LTD ,FAGBEARIN.NS
FCI OEN CONNECTORS LTD ,OENCONNEC.NS
FCL TECHNOLOGIES & PRODUC ,FLEXCHEM.NS
FDC LIMITED ,FDC.NS
FEDERAL BANK LTD ,FEDERALBN.NS
FINOLEX CABLES LTD ,FINCABLES.NS
FINOLEX INDUSTRIES LTD ,FINPIPE.NS
FIRST LEASING COMPANY OF ,FIRSTLEAS.NS
FLEX INDUSTRIES LTD ,FLEX.NS
FOSECO INDIA LTD ,FOSECOIND.NS
GAIL (INDIA) LTD ,GAIL.NS
GAMMON INDIA LTD ,GAMMONIND.NS
GARDEN SILK MILLS LTD ,GARDENSIL.NS
GATEWAY DISTRIPARKS LTD. ,GDL.NS
GEOMETRIC SOFTWARE SOLTNS ,GEOMETRIC.NS
GHCL LIMITED ,GHCL.NS
Gillette India Limited ,GILLETTE.NS
Gitanjali Gems Limited ,GITANJALI.NS
GLAXOSMITHKLINE CONSUMER ,GSKCONS.NS
GLAXOSMITHKLINE PHARMA LT ,GLAXO.NS
GLENMARK PHARMACEUTICALS ,GLENMARK.NS
GODAVARI FERTILISERS LTD ,GODAVRFER.NS
GODFREY PHILLIPS INDIA LT ,GODFRYPHL.NS
GODREJ CONSUMER PRODUCTS ,GODREJCP.NS
GODREJ INDUSTRIES LTD ,GODREJIND.NS
Gokaldas Exports Limited,GOKEX.NS
GRAPHITE INDIA LTD ,GRAPHITE.NS
GRASIM INDUSTRIES LTD ,GRASIM.NS
GREAT EASTERN SHIPPING CO ,GESHIPPIN.NS
GREAVES COTTON LTD. ,GREAVESCO.NS
GTL LTD ,GTL.NS
GTN Industries Limited ,GTNIND.NS
GUJ IND POW CO. LTD ,GIPCL.NS
GUJ STATE FERT & CHEM LTD ,GSFC.NS
GUJARAT ALKALIES & CHEM ,GUJALKALI.NS
GUJARAT AMBUJA CEMENT LTD ,GUJAMBCEM.NS
GUJARAT AMBUJA EXPORTS LT ,GAEL.NS
GUJARAT FLUOROCHEMICALS L ,GUJFLUORO.NS
GUJARAT GAS CO. LTD ,GUJRATGAS.NS
GUJARAT MINERAL DEV CORP ,GMDCLTD.NS
GUJARAT N R E COKE LTD ,GUJNRECOK.NS
GUJARAT NARMADA FERT. CO ,GNFC.NS
HARRISON MALAYALAM LTD ,HARRMALAY.NS
HAVELLS INDIA LIMITED ,HAVELLS.NS
HCL INFOSYSTEMS LTD ,HCL-INSYS.NS
HCL TECHNOLOGIES LTD ,HCLTECH.NS
HDFC BANK LTD ,HDFCBANK.NS
HDFC LTD ,HDFC.NS
HEG LTD ,HEG.NS
HERITAGE FOODS (INDIA) LT ,HERITGFOO.NS
HERO HONDA MOTORS LTD ,HEROHONDA.NS
HEXAWARE TECHNOLOGIES LTD ,HEXAWARE.NS
HIKAL LIMITED ,HIKAL.NS
HIMACHAL FUTURISTICS COMM ,HIMACHLFU.NS
HIMATSINGKA SEIDE LTD ,HIMATSEID.NS
HINDALCO INDUSTRIES LTD ,HINDALCO.NS
HINDUJA TMT LTD ,HTMT.NS
Hindustan Construction Co. Ltd ,HCC.NS
HINDUSTAN LEVER LTD ,HINDLEVER.NS
HINDUSTAN MACHINE TOOLS L ,HMT.NS
HINDUSTAN MOTORS LIMITED ,HINDMOTOR.NS
HINDUSTAN OIL EXPLORATION ,HINDOILEX.NS
HINDUSTAN PETROLEUM CORP ,HINDPETRO.NS
HINDUSTAN SANITARY AND IN ,HINDSANIT.NS
HONEYWELL AUTOMATION IND ,HONAUT.NS
HOTEL LEELA VENTURES LTD ,HOTELEELA.NS
HT Media Limited ,HTMEDIA.NS
IBP CO LTD ,IBP.NS
ICI INDIA LTD ,ICI.NS
ICICI BANK LTD. ,ICICIBANK.NS
I-FLEX SOLUTIONS LIMITED ,I-FLEX.NS
IGATE GLOBAL SOLUTIONS LT ,IGS.NS
IND SWIFT LABORATORIES LT ,INDSWFTLA.NS
INDIA CEMENTS LTD ,INDIACEM.NS
INDIA GLYCOLS LTD ,INDIAGLYC.NS
INDIA NIPPON ELECT LTD ,INDNIPPON.NS
INDIABULLS FIN. SER. LTD. ,INDIABULL.NS
INDIAN CARD CLOTHING CO. ,INDIANCAR.NS
INDIAN HOTELS CO LTD ,INDHOTEL.NS
INDIAN OIL CORP LTD ,IOC.NS
INDIAN OVERSEAS BANK ,IOB.NS
INDIAN PETROCHEMICALS COR ,IPCL.NS
INDO RAMA SYNTHETICS LTD ,INDORAMA.NS
INDRAPRASTHA GAS LTD ,IGL.NS
INDRAPRASTHA MEDICAL CORP ,INDRAMEDC.NS
INDUS DEV BANK OF IND LTD ,IDBI.NS
INDUSIND BANK LIMITED ,INDUSINDB.NS
INFOSYS TECHNOLOGIES LTD ,INFOSYSTC.NS
INFOTECH ENTERPRISES LTD ,INFOTECEN.NS
INGERSOLL-RAND INDIA LTD ,INGERRAND.NS
INOX Leisure Limited ,INVSTSMAR.NS
IPCA LABORATORIES LTD ,IPCALAB.NS
ITC LTD ,ITC.NS
IVRCL INFRAST & PROJ LTD. ,IVRCLINFR.NS
J B CHEMICALS AND PHARMA ,JBCHEPHAR.NS
JAIN IRRIGATION SYSTEMS ,JISLJALEQ.NS
JAIN STUDIOS LIMITED ,JAINSTUDI.NS
JAIPRAKASH ASSOCIATES LTD ,JPASSOCIA.NS
JAYSHREE TEA & INDUSTRIES ,JAYSREETE.NS
JET AIRWAYS (INDIA) LTD. ,JETAIRWAY.NS
JINDAL POLY FILMS LTD ,JINDALPOL.NS
JINDAL STAINLESS LTD ,JSTAINLES.NS
JINDAL STEEL & POWER LTD ,JINDALSTE.NS
JSW Steel Limited ,JSWSTEEL.NS
JUBILANT ORGANOSYS LTD. ,JUBILANT.NS
JYOTI STRUCTURES LTD ,JYOTISTRU.NS
KAJARIA CERAMICS LTD ,KAJARIACE.NS
KAKATIYA CEM SUGAR & IND. ,KAKATCEM.NS
KALE CONSULTANTS LTD ,KALECONSU.NS
KALPATARU POWER TRANS. LT ,KALPATPOW.NS
Kansai Nerolac Paints Limited ,KANSAINER.NS
KARNATAKA BANK LIMITED ,KTKBANK.NS
KARUR VYSYA BANK LTD ,KARURVYSY.NS
KCP LTD ,KCP.NS
KEC Infrastructures Limited ,KECINFRA.NS
KESORAM INDUSTRIES LTD ,KESORAMIN.NS
Kirloskar Brothers Limited ,KBL.NS
KIRLOSKAR OIL ENGINES LTD ,KIRLOSOIL.NS
Kohinoor Foods Limited ,KOHINOOR.NS
KOPRAN LTD ,KOPRAN.NS
KOTAK MAHINDRA BANK LTD ,KOTAKBANK.NS
KOTHARI PRODUCTS LTD ,KOTHARIPR.NS
KPIT CUMMINS INFOSYSTEMS ,KPIT.NS
KSB PUMPS LTD ,KSBPUMPS.NS
LAKSHMI MACHINES LTD ,LAXMIMACH.NS
LAKSHMI VILAS BANK LTD ,LAKSHVILA.NS
LANXESS ABS Limited ,LANABS.NS
LARSEN & TOUBRO LTD. ,LT.NS
LG BALAKRISHNAN & BROS. L ,LGBROS.NS
LIC HOUSING FINANCE LTD ,LICHSGFIN.NS
LUMAX INDUSTRIES LTD ,LUMAXIND.NS
LUPIN LIMITED ,LUPIN.NS
MACMILLAN INDIA LIMITED ,MACMILLAN.NS
MADRAS CEMENTS LTD ,MADRASCEM.NS
MAHANAGAR TELEPHONE NIGAM ,MTNL.NS
MAHARASHTRA SCOOTERS LTD ,MAHSCOOTE.NS
MAHARASHTRA SEAMLESS LTD ,MAHSEAMLE.NS
MAHINDRA GESCO DEVELOPERS ,GESCOCORP.NS
MAHINDRA UGINE STEEL CO. ,MAHINDUGI.NS
MARAL OVERSEAS LTD ,MARALOVER.NS
Marico Limited ,MARICO.NS
MARUTI UDYOG LIMITED ,MARUTI.NS
MASTEK LTD ,MASTEK.NS
MATRIX LABORATORIES LTD. ,MATRIXLAB.NS
MAX INDIA LTD ,MAX.NS
MCDOWELL & COMPANY LIMITE ,MCDOWELL-.NS
Mercator Lines Limited ,MLL.NS
MICRO INKS LTD ,MICRO.NS
MID-DAY MULTIMEDIA LTD ,MID-DAY.NS
MIRC ELECTRONICS LTD ,MIRCELECT.NS
MIRC Electronics Ltd. ,MIRZAINT.NS
MONNET ISPAT LTD ,MONNETISP.NS
MONSANTO INDIA LIMITED ,MONSANTO.NS
MOSER-BAER (I) LTD ,MOSERBAER.NS
MOTHERSON SUMI SYSTEMS LT ,MOTHERSUM.NS
MOTOR INDUSTRIES CO LTD ,MICO.NS
MPHASIS BFL LIMITED ,MPHASISBF.NS
MRF LTD ,MRF.NS
MRO-TEK LIMITED ,MRO-TEK.NS
MRPL ,MRPL.NS
MUKTA ARTS LIMITED,MUKTAARTS.NS
MUNJAL SHOWA LTD ,MUNJALSHO.NS
NAGARJUNA CONSTRN. CO. LT ,NAGARCONS.NS
NAGARJUNA FERTILIZERS LTD ,NAGARFERT.NS
NAHAR EXPORTS LTD ,NAHAREXP.NS
NAHAR SPINNING MILLS LTD ,NAHARSPG.NS
NARMADA CHEMATUR PETROCHE ,NARMDCHEM.NS
NATIONAL ALUMINIUM CO LTD ,NATIONALU.NS
NAVNEET PUBLICATIONS LTD ,NAVNETPUB.NS
Navneet Publications Ltd. ,NBVENTURE.NS
NDTV LTD ,NDTV.NS
NELCO LTD ,NELCO.NS
NEPC INDIA LTD ,NEPCMICON.NS
NEYVELI LIGNITE CORPORATI ,NEYVELILI.NS
NICOLAS PIRAMAL INDIA LTD ,NICOLASPI.NS
NIRMA LTD ,NIRMA.NS
NOVA PETROCHEMICALS ,NOVAPETRO.NS
NRB BEARING LIMITED ,NRBBEARIN.NS
NTPC LTD ,NTPC.NS
OIL AND NATURAL GAS CORP. ,ONGC.NS
OMAX AUTOS LTD ,OMAXAUTO.NS
ONWARD TECHNOLOGIES LTD ,ONWARDTEC.NS
ORCHID CHEMICALS LTD ,ORCHIDCHE.NS
ORIENT HOTELS LTD ,ORIENTHOT.NS
ORIENT INFORMATION TECHNO ,ORIENTINF.NS
ORIENT PAPER AND INDS LTD ,ORIENTPPR.NS
ORIENTAL BANK OF COMMERCE ,ORIENTBAN.NS
P&G HYGIENE & HEALTH CARE ,PGHH.NS
PANACEA BIOTEC LTD ,PANACEABI.NS
PANTALOON RETAIL (I) LTD ,PANTALOON.NS
PATEL ENGINEERING LTD. ,PATELENG.NS
PATNI COMPUTER SYST LTD ,PATNI.NS
PATSPIN INDIA LTD ,PATSPINLT.NS
PETRONET LNG LIMITED ,PETRONET.NS
PFIZER LTD ,PFIZER.NS
PIDILITE INDUSTRIES LTD ,PIDILITIN.NS
PNB GILTS LIMITED ,PNBGILTS.NS
POLARIS SOFTWARE LAB LTD ,POLARIS.NS
PRAJ INDUSTRIES LTD ,PRAJIND.NS
Pricol Limited ,PRICOL.NS
PRISM CEMENTS LTD ,PRISMCEM.NS
PRITISH NANDY COMMUNICATION ,PNC.NS
PSL LIMITED ,PSL.NS
PUDUMJEE PULP & PAPER MIL ,PDUMJEPUL.NS
Punj Lloyd Limited ,PUNJLLOYD.NS
PUNJAB NATIONAL BANK ,PNB.NS
PUNJAB TRACTORS LTD ,PUNJABTRA.NS
RADICO KHAITAN LTD ,RADICO.NS
RAIN CALCINING LTD ,RAINCALCI.NS
RAJESH EXPORTS LTD ,RAJESHEXP.NS
RALLIS INDIA LTD ,RALLIS.NS
RAMCO INDUSTRIES LIMITED ,RAMCOIND.NS
RAMCO SYSTEMS LTD. ,RAMCOSYS.NS
RANBAXY LABS LTD ,RANBAXY.NS
RANE ENGINE VALVES LTD ,REVL.NS
RASHTRIYA CHEMICALS & FER ,RCF.NS
RAYMOND LTD ,RAYMOND.NS
RELIANCE CAPITAL LTD ,RELCAPITA.NS
Reliance Communications Limited ,RCOM.NS
RELIANCE ENERGY LTD ,REL.NS
RELIANCE INDUSTRIES LTD ,RELIANCE.NS
RICO AUTO INDUSTRIES LTD ,RICOAUTO.NS
RIIL,RIIL.NS
ROLTA INDIA LTD ,ROLTA.NS
RSWM Limited ,RSWM.NS
RUCHI SOYA INDUSTRIES LTD ,RUCHISOYA.NS
S KUMARS NATIONWIDE LTD ,SKUMARSYN.NS
SAKTHI SUGARS LTD ,SAKHTISUG.NS
SALORA INTERNATIONAL LTD ,SALORAINT.NS
SAMTEL COLOR LTD ,SAMTEL.NS
SANDESH LTD ,SANDESH.NS
SAREGAMA INDIA LIMITED ,SAREGAMA.NS
SATYAM COMPUTER SERVICES ,SATYAMCOM.NS
SESA GOA LTD ,SESAGOA.NS
SESHASAYEE PAPER & BOARDS ,SESHAPAPE.NS
SHANTHI GEARS LTD ,SHANTIGEA.NS
SHASUN CHEMICALS & DRUGS ,SHASUNCHE.NS
SHIPPING CORP OF INDIA LT ,SCI.NS
SHOPPERS STOP LTD ,SHOPERSTO.NS
SHREE CEMENTS LTD ,SHREECEM.NS
Shree Renuka Sugars Limited ,RENUKA.NS
SHRENUJ & CO LTD ,SHRENUJ.NS
SHRIRAM TRANSPORT FIN CO. ,SRTRANSFI.NS
SIEMENS LTD ,SIEMENS.NS
Simbhaoli Sugars Limited ,SIMPLEXIN.NS
SINTEX INDUSTRIES LTD ,SINTEX.NS
SIRPUR PAPER MILLS LTD ,SIRPAPER.NS
SKF INDIA LTD ,SKFINDIA.NS
SONA KOYO STER SYS LTD ,SONASTEER.NS
SONATA SOFTWARE LTD ,SONATSOFT.NS
SOUTH EAST ASIA MARINE EN ,SEAMECLTD.NS
SREI INFRASTRUCTURE FINAN ,SREINTFIN.NS
SRF LTD ,SRF.NS
SRI ADHIKARI BROTHERS TEL ,SRIADIKAR.NS
SSI LTD ,SOFTSOLIN.NS
STATE BANK OF INDIA ,SBIN.NS
STEEL AUTHORITY OF INDIA ,SAIL.NS
STERLING BIOTECH LTD. ,STERLINBI.NS
STERLITE INDS (IND) LTD ,STER.NS
STERLITE OPTICAL TECHNOLO ,STROPTICA.NS
STRIDES ARCOLAB LIMITED ,STAR.NS
SUN PHARMACEUTICALS IND. ,SUNPHARMA.NS
Sun TV Network Limited ,SUNTV.NS
SUNDARAM BRAK LININGS LTD ,SUNDRMBRA.NS
SUNDARAM CLAYTON LTD ,SUNDRMCLA.NS
SUNDARAM FASTENERS LTD ,SUNDRMFAS.NS
SUNDARAM FINANCE LTD ,SUNDARMFI.NS
SUPREME PETROCHEMICALS LT ,SUPPETRO.NS
SURYA ROSHNI LTD ,SURYAROSN.NS
Suzlon Energy Limited ,SUZLON.NS
SWARAJ ENGINES LTD ,SWARAJENG.NS
SWARAJ MAZDA LTD ,SWARAJMAZ.NS
SYNDICATE BANK ,SYNDIBANK.NS
TAJ GVK HOTELS & RESORTS ,TAJGVK.NS
TAMILNADU NEWSPRT & PAPER ,TNPL.NS
TAMILNADU PETROPRODUCTS L ,TNPETRO.NS
TATA CHEMICALS LTD ,TATACHEM.NS
Tata Chemicals Ltd. ,TATACOFFE.NS
TATA CONSULTANCY SERV LT ,TCS.NS
TATA ELXSI (I) LTD ,TATAELXSI.NS
Tata Elxsi (India) Ltd ,TATAINVES.NS
TATA METALIKS LTD ,TATAMETAL.NS
TATA MOTORS LIMITED ,TATAMOTOR.NS
TATA POWER CO LTD ,TATAPOWER.NS
TATA SPONGE IRON LIMITED ,TATASPONG.NS
Tata Steel Limited ,TATASTEEL.NS
TATA TEA LTD ,TATATEA.NS
Television Eighteen India Ltd.,TV-18.NS
THE PAPER PRODUCTS LTD ,PAPERPROD.NS
THE SOUTH INDIAN BANK LTD ,SOUTHBANK.NS
THE STATE TRADING CORPN ,STCINDIA.NS
THERMAX LTD ,THERMAX.NS
THIRU AROORAN SUGARS LTD ,THIRUSUGA.NS
THOMAS COOK (INDIA) LTD ,THOMASCOO.NS
TIPS INDUSTRIES LIMITED ,TIPSINDLT.NS
TITAN INDUSTRIES LTD ,TITAN.NS
TORRENT PHARMACEUTICALS L ,TORNTPHAR.NS
TOURISM FINANCE CORP. OF ,TFCILTD.NS
TRENT LTD ,TRENT.NS
Trigyn Technologies Limited ,TRIGYN.NS
TUBE INVESTMENTS OF INDIA ,TUBEINVES.NS
TV TODAY NETWORK LTD ,TVTODAY.NS
TVS MOTOR COMPANY LTD ,TVSMOTOR.NS
UCAL FUEL SYSTEMS LTD ,UCALFUEL.NS
UCO BANK ,UCOBANK.NS
ULTRATECH CEMENT LIMITED ,ULTRACEMC.NS
UNICHEM LABORATORIES LTD ,UNICHEMLA.NS
UNION BANK OF INDIA ,UNIONBANK.NS
UNITECH LTD ,UNITECH.NS
UNITED PHOSPHOROUS LTD ,UNIPHOS.NS
USHA MARTIN LTD. ,USHAMART.NS
UTI BANK LTD ,UTIBANK.NS
UTTAM GALVA STEELS LTD ,UTTAMSTL.NS
VARDHMAN POLYTEX LTD. ,VARDMNPOL.NS
Vardhman Textiles Limited ,VTL.NS
VESUVIUS INDIA LTD ,VESUVIUS.NS
VIDEOCON APPLIANCES LTD ,VDOCONAPP.NS
VIDEOCON INDUSTRIES LIMIT ,VIDEOIND.NS
VIDESH SANCHAR NIGAM LTD ,VSNL.NS
VIJAYA BANK ,VIJAYABAN.NS
VINDHYA TELELINKS LTD ,VINDHYATE.NS
VIP INDUSTRIES LTD ,VIPIND.NS
VISAKA INDUSTRIES LIMITED ,VISAKAIND.NS
VISUALSOFT TECHNOLOGIES L ,VISUALSOF.NS
VOLTAS LTD ,VOLTAS.NS
VST INDUSTRIES LTD ,VSTIND.NS
Welspun Gujarat Stahl Rohren Li ,WELGUJ.NS
WELSPUN INDIA LTD ,WELSPUNIN.NS
WEST COAST PAPER MILLS LT ,WSTCSTPAP.NS
WHEELS INDIA LTD ,WHEELS.NS
WIPRO LTD ,WIPRO.NS
WOCKHARDT LIMITED ,WOCKPHARM.NS
Wyeth Limited ,WYETH.NS
ZANDU PHARMA WORKS LTD ,ZANDUPHAR.NS
ZEE TELEFILMS LTD ,ZEETELE.NS
ZENITH COMPUTERS LIMITED ,ZENITHCOM.NS
ZENSAR TECHNOLOGIES LTD ,ZENSARTEC.NS
ZODIAC CLOTHING CO. LTD. ,ZODIACLOT.NS
ZUARI INDUSTRIES LTD ,ZUARIAGRO.NS
